…
``` r
data_tp1_th <- data_tp1_th %>%
  mutate(
    events = Target + Distractor,
    elogit = log((Target + .5) / (Distractor + .5)),
    elogit_wts = (1 / (Target + .5)) + (1 / (Distractor + .5))
  )
```

Note that these values match what we had precomputed already:

``` r
data_tp1_th %>%
  dplyr::select(events, elog, elogit, elog_wts, elogit_wts)
#> # A tibble: 2,139 × 5
#>    events  elog elogit elog_wts elogit_wts
#>     <dbl> <dbl>  <dbl>    <dbl>      <dbl>
#>  1      6 2.56   2.56     2.15       2.15 
#>  2     12 0.999  0.999    0.391      0.391
#>  3     12 0.999  0.999    0.391      0.391
#>  4      6 0      0        0.571      0.571
#>  5      6 2.56   2.56     2.15       2.15 
#>  6      6 2.56   2.56     2.15       2.15 
#>  7      6 2.56   2.56     2.15       2.15 
#>  8      6 0      0        0.571      0.571
#>  9      6 2.56   2.56     2.15       2.15 
#> 10      6 0      0        0.571      0.571
#> # … with 2,129 more rows
```
…
